{
    "and": {
        "prefix": "and",
        "body": [
            "and ${1:r?} ${2:a(r?|num)} ${3:b(r?|num)}"
        ],
        "description": "register = 1 if a and b are not zero, otherwise 0"
    },
    "nor": {
        "prefix": "nor",
        "body": [
            "nor ${1:r?} ${2:a(r?|num)} ${3:b(r?|num)}"
        ],
        "description": "register = 1 if a and b are zero, otherwise 0"
    },
    "or": {
        "prefix": "or",
        "body": [
            "or ${1:r?} ${2:a(r?|num)} ${3:b(r?|num)}"
        ],
        "description": "register = 1 if either a or b or both are not zero, otherwise 0"
    },
    "xor": {
        "prefix": "xor",
        "body": [
            "xor ${1:r?} ${2:a(r?|num)} ${3:b(r?|num)}"
        ],
        "description": "register = 1 if either a or b but not both are not zero, otherwise 0"
    }
}