{
    "alias": {
        "prefix": "alias",
        "body": [
            "alias ${1:str} ${2:r?|d?}"
        ],
        "description": "labels register or device reference with name, device references also affect what shows on the screws on the IC base"
    },
    "define": {
        "prefix": "define",
        "body": [
            "define ${1:str} ${2:num}"
        ],
        "description": "creates a label that will be replaced throughout the program with the provided value"
    },
    "hcf": {
        "prefix": "hcf",
        "body": [
            "hcf"
        ],
        "description": "halt and catch fire."
    },
    "move": {
        "prefix": "move",
        "body": [
            "move ${1:r?} ${2:a(r?|num)}"
        ],
        "description": "register = provided num or register value"
    },
    "yield": {
        "prefix": "yield",
        "body": [
            "yield"
        ],
        "description": "pauses execution for 1 tick"
    }
}